<?xml version="1.0" encoding="utf-8"?>
<!-- Generated by IcoMoon.io -->
<!DOCTYPE svg PUBLIC "-//W3C//DTD SVG 1.1//EN" "http://www.w3.org/Graphics/SVG/1.1/DTD/svg11.dtd">
<svg version="1.1" xmlns="http://www.w3.org/2000/svg" xmlns:xlink="http://www.w3.org/1999/xlink" width="48" height="48" viewBox="0 0 48 48">


<g id="icomoon-ignore">
</g>

<defs>
      <linearGradient id="Gradient1" x2="100%" y2="100%">
        <stop offset="0%" stop-color="#fcd0d0" />
        <stop offset="40%" stop-color="#f9aaaa" />
        <stop offset="60%" stop-color="#f98787" />
        <stop offset="100%" stop-color="#f96b6b" />
      </linearGradient>
    </defs>
<path d="M24 0c-13.255 0-24 10.745-24 24s10.745 24 24 24 24-10.745 24-24-10.745-24-24-24zM21 9h6v6h-6v-6zM30 39h-12v-3h3v-12h-3v-3h9v15h3v3z"  fill="url(#Gradient1)"></path>

</svg>
