<?xml version="1.0" encoding="utf-8"?>
<!-- Generator: Adobe Illustrator 16.0.0, SVG Export Plug-In . SVG Version: 6.00 Build 0)  -->
<!DOCTYPE svg PUBLIC "-//W3C//DTD SVG 1.1//EN" "http://www.w3.org/Graphics/SVG/1.1/DTD/svg11.dtd">
<svg version="1.1" id="Layer_1" xmlns="http://www.w3.org/2000/svg" xmlns:xlink="http://www.w3.org/1999/xlink" x="0px" y="0px"
	 width="500px" height="500px" viewBox="0 0 500 500" enable-background="new 0 0 500 500" xml:space="preserve">
<g>
	<path class="bar-bg" fill-rule="evenodd" clip-rule="evenodd" fill="#BCBCBC" d="M452.398,331.229V168.776c0-44.601-36.193-80.754-80.84-80.754
		H128.45c-44.651,0-80.849,36.153-80.849,80.754v162.453c0,44.595,36.197,80.748,80.849,80.748h243.108
		C416.205,411.978,452.398,375.824,452.398,331.229L452.398,331.229z"/>
	<g>
		<polygon fill-rule="evenodd" clip-rule="evenodd" fill="#484848" points="310.957,179.504 350.286,179.504 350.286,320.496 
			310.957,320.496 310.957,179.504 		"/>
		<path fill="#484848" d="M149.714,320.496V179.504h39.328v140.992H149.714L149.714,320.496z M230.335,320.496V179.504h39.33
			v140.992H230.335L230.335,320.496z"/>
	</g>
</g>
</svg>
